lab6/part1/simulation/qsim/lab6_part1.msim.vcd
$comment
	File created using the following command:
		vcd file lab6_part1.msim.vcd -direction
$end
$date
	Wed Oct 02 14:47:52 2024
$end
$version
	ModelSim Version 2020.1
$end
$timescale
	1ps
$end

$scope module fulladder_vlg_vec_tst $end
$var reg 1 ! a $end
$var reg 1 " b $end
$var reg 1 # cin $end
$var wire 1 $ cout $end
$var wire 1 % s $end

$scope module i1 $end
$var wire 1 & gnd $end
$var wire 1 ' vcc $end
$var wire 1 ( unknown $end
$var tri1 1 ) devclrn $end
$var tri1 1 * devpor $end
$var tri1 1 + devoe $end
$var wire 1 , ~QUARTUS_CREATED_GND~I_combout $end
$var wire 1 - ~QUARTUS_CREATED_UNVM~~busy $end
$var wire 1 . ~QUARTUS_CREATED_ADC1~~eoc $end
$var wire 1 / ~QUARTUS_CREATED_ADC2~~eoc $end
$var wire 1 0 s~output_o $end
$var wire 1 1 cout~output_o $end
$var wire 1 2 a~input_o $end
$var wire 1 3 cin~input_o $end
$var wire 1 4 b~input_o $end
$var wire 1 5 WideOr1~0_combout $end
$var wire 1 6 WideOr0~0_combout $end
$upscope $end
$upscope $end
$enddefinitions $end
#0
$dumpvars
0!
0"
0#
0$
0%
0&
1'
x(
1)
1*
1+
0,
z-
z.
z/
00
01
02
03
04
05
06
$end
#50000
1!
12
15
10
1%
#100000
1"
0!
02
14
#150000
1!
12
16
05
00
11
1$
0%
#200000
1#
0"
0!
02
04
13
06
15
10
01
0$
1%
#250000
1!
12
16
05
00
11
1$
0%
#300000
1"
0!
02
14
#350000
1!
12
15
10
1%
#400000
0#
0"
0!
02
04
03
06
05
00
01
0$
0%
